[
  {
      "grouping":"Languages, Operating Systems & Tools",
      "skills":[ "Kotlin","Java","Python","C#","C", "C++","php","jquery","javascript","git"]
  },
  {
      "grouping":"Platform Development & Administration",
      "skills":[ "MySQL","AWS","PostgreSQL","Oracle","Wordpress"]
  },
  {
    "grouping":"Containers & Cloud",
      "skills":[
          {"name":"AWS","link":"https://aws.amazon.com"},
          {"name":"Linux","link":"https://newgreat.jp"}
      ]
  }
]
